<svg xmlns="http://www.w3.org/2000/svg" xmlns:xlink="http://www.w3.org/1999/xlink" width="46" height="31" viewBox="0 0 46 31">
    <defs>
        <rect id="a" width="46" height="30.047" rx="3"/>
    </defs>
    <g fill="none" fill-rule="evenodd">
        <use fill="#FFF" xlink:href="#a"/>
        <rect width="46" height="30.047" stroke="#EBEBEB" rx="3"/>
        <g fill="#CFCFCF">
            <g transform="translate(12.65 12.857)">
               <ellipse cx="2.3" cy="2.143" rx="2.3" ry="2.143"/>
            <ellipse cx="11.5" cy="2.143" rx="2.3" ry="2.143"/>
            <ellipse cx="20.7" cy="2.143" rx="2.3" ry="2.143"/>
            </g>
        </g>
    </g>
</svg>
