<svg xmlns="http://www.w3.org/2000/svg" width="26" height="28" viewBox="0 0 26 28">
    <g fill="none" fill-rule="evenodd">
        <path d="M-4-2h34v34H-4z"/>
        <path fill="#00BCD4" d="M12.986 24.265L2.545 16.148.25 17.933 13 27.849l12.75-9.916-2.31-1.8-10.454 8.132zM13 20.667l10.427-8.118 2.323-1.799L13 .833.25 10.75l2.31 1.8L13 20.666z"/>
    </g>
</svg>
