<svg xmlns="http://www.w3.org/2000/svg" width="30" height="28" viewBox="0 0 30 28">
    <g fill="none" fill-rule="evenodd">
        <path d="M-2-2h34v34H-2z"/>
        <path fill="#00BCD4" d="M26.333 6.5h-3.088c.156-.44.255-.92.255-1.417a4.244 4.244 0 0 0-7.792-2.337L15 3.695l-.708-.963A4.266 4.266 0 0 0 10.75.833a4.244 4.244 0 0 0-4.25 4.25c0 .496.1.978.255 1.417H3.667a2.812 2.812 0 0 0-2.82 2.833L.834 24.917a2.824 2.824 0 0 0 2.834 2.833h22.666a2.824 2.824 0 0 0 2.834-2.833V9.333A2.824 2.824 0 0 0 26.333 6.5zM19.25 3.667c.78 0 1.417.637 1.417 1.416A1.42 1.42 0 0 1 19.25 6.5a1.42 1.42 0 0 1-1.417-1.417c0-.779.638-1.416 1.417-1.416zm-8.5 0c.78 0 1.417.637 1.417 1.416A1.42 1.42 0 0 1 10.75 6.5a1.42 1.42 0 0 1-1.417-1.417c0-.779.638-1.416 1.417-1.416zm15.583 21.25H3.667v-2.834h22.666v2.834zm0-7.084H3.667v-8.5h7.196l-2.946 4.01L10.212 15l3.371-4.59L15 8.483l1.417 1.927L19.788 15l2.295-1.658-2.946-4.009h7.196v8.5z"/>
    </g>
</svg>
