<svg xmlns="http://www.w3.org/2000/svg" width="24" height="30" viewBox="0 0 24 30">
    <g fill="none" fill-rule="evenodd">
        <path d="M-5-2h34v34H-5z"/>
        <path fill="#00BCD4" d="M20.5.833h-17A2.842 2.842 0 0 0 .667 3.667v22.666A2.842 2.842 0 0 0 3.5 29.167h17a2.842 2.842 0 0 0 2.833-2.834V3.667A2.842 2.842 0 0 0 20.5.833zm-17 2.834h7.083V15l-3.541-2.125L3.5 15V3.667z"/>
    </g>
</svg>
