<svg xmlns="http://www.w3.org/2000/svg" width="30" height="24" viewBox="0 0 30 24">
    <g fill="none" fill-rule="evenodd">
        <path d="M-2-5h34v34H-2z"/>
        <path fill="#00BCD4" d="M26.333.667H3.667A2.83 2.83 0 0 0 .847 3.5l-.014 17a2.842 2.842 0 0 0 2.834 2.833h22.666a2.842 2.842 0 0 0 2.834-2.833v-17A2.842 2.842 0 0 0 26.333.667zm0 5.666L15 13.417 3.667 6.333V3.5L15 10.583 26.333 3.5v2.833z"/>
    </g>
</svg>
