<svg xmlns="http://www.w3.org/2000/svg" width="22" height="18" viewBox="0 0 22 18">
    <g fill="none" fill-rule="evenodd">
        <path d="M-1-3h24v24H-1z"/>
        <path fill="#00BCD4" d="M20 0H2C.9 0 0 .9 0 2v12c0 1.1.9 2 2 2h5v2h8v-2h5c1.1 0 1.99-.9 1.99-2L22 2c0-1.1-.9-2-2-2zm0 14H2V2h18v12z"/>
    </g>
</svg>
